sim/dump.vcd
$version Generated by VerilatedVcd $end
$timescale 1ps $end
 $scope module $rootio $end
  $var wire 1 # aclk $end
  $var wire 1 $ aresetn $end
  $var wire 128 % s_axis_tdata [127:0] $end
  $var wire 16 ) s_axis_tkeep [15:0] $end
  $var wire 1 * s_axis_tvalid $end
  $var wire 1 + s_axis_tready $end
  $var wire 1 , s_axis_tlast $end
  $var wire 128 - m_axis_tdata [127:0] $end
  $var wire 16 1 m_axis_tkeep [15:0] $end
  $var wire 1 2 m_axis_tvalid $end
  $var wire 1 3 m_axis_tready $end
  $var wire 1 4 m_axis_tlast $end
 $upscope $end
 $scope module sha256_stream $end
  $var wire 32 1" DATA_WIDTH [31:0] $end
  $var wire 32 2" KEEP_WIDTH [31:0] $end
  $var wire 1 5 aclk $end
  $var wire 1 6 aresetn $end
  $var wire 128 7 s_axis_tdata [127:0] $end
  $var wire 16 ; s_axis_tkeep [15:0] $end
  $var wire 1 < s_axis_tvalid $end
  $var wire 1 = s_axis_tready $end
  $var wire 1 > s_axis_tlast $end
  $var wire 128 ? m_axis_tdata [127:0] $end
  $var wire 16 C m_axis_tkeep [15:0] $end
  $var wire 1 D m_axis_tvalid $end
  $var wire 1 E m_axis_tready $end
  $var wire 1 F m_axis_tlast $end
  $var wire 256 3" SHA256_IV [255:0] $end
  $var wire 512 ;" PAD_BLOCK [511:0] $end
  $var wire 1 G core_start $end
  $var wire 1 H core_ready $end
  $var wire 1 I core_done $end
  $var wire 512 J core_block [511:0] $end
  $var wire 256 Z core_cv_in [255:0] $end
  $var wire 256 b core_cv_out [255:0] $end
  $var wire 3 j rx_state_q [2:0] $end
  $var wire 512 k msg_q [511:0] $end
  $var wire 2 { beat_idx_q [1:0] $end
  $var wire 256 | digest_q [255:0] $end
  $var wire 1 &! digest_valid_q $end
  $var wire 1 '! start_pulse $end
  $var wire 512 (! start_block [511:0] $end
  $var wire 256 8! start_cv [255:0] $end
  $var wire 1 @! tx_consume_digest $end
  $var wire 2 A! tx_state_q [1:0] $end
  $scope module u_core $end
   $var wire 1 B! clk $end
   $var wire 1 C! rstn $end
   $var wire 1 D! start $end
   $var wire 512 E! block [511:0] $end
   $var wire 256 U! cv_in [255:0] $end
   $var wire 1 ]! ready $end
   $var wire 1 ^! done $end
   $var wire 256 _! cv_out [255:0] $end
   $var wire 32 g! a_q [31:0] $end
   $var wire 32 h! b_q [31:0] $end
   $var wire 32 i! c_q [31:0] $end
   $var wire 32 j! d_q [31:0] $end
   $var wire 32 k! e_q [31:0] $end
   $var wire 32 l! f_q [31:0] $end
   $var wire 32 m! g_q [31:0] $end
   $var wire 32 n! h_q [31:0] $end
   $var wire 32 o! av_q [31:0] $end
   $var wire 32 p! bv_q [31:0] $end
   $var wire 32 q! cv_q [31:0] $end
   $var wire 32 r! dv_q [31:0] $end
   $var wire 32 s! ev_q [31:0] $end
   $var wire 32 t! fv_q [31:0] $end
   $var wire 32 u! gv_q [31:0] $end
   $var wire 32 v! hv_q [31:0] $end
   $var wire 32 w! W_q[0] [31:0] $end
   $var wire 32 x! W_q[1] [31:0] $end
   $var wire 32 y! W_q[2] [31:0] $end
   $var wire 32 z! W_q[3] [31:0] $end
   $var wire 32 {! W_q[4] [31:0] $end
   $var wire 32 |! W_q[5] [31:0] $end
   $var wire 32 }! W_q[6] [31:0] $end
   $var wire 32 ~! W_q[7] [31:0] $end
   $var wire 32 !" W_q[8] [31:0] $end
   $var wire 32 "" W_q[9] [31:0] $end
   $var wire 32 #" W_q[10] [31:0] $end
   $var wire 32 $" W_q[11] [31:0] $end
   $var wire 32 %" W_q[12] [31:0] $end
   $var wire 32 &" W_q[13] [31:0] $end
   $var wire 32 '" W_q[14] [31:0] $end
   $var wire 32 (" W_q[15] [31:0] $end
   $var wire 6 )" t_q [5:0] $end
   $var wire 1 *" busy_q $end
   $var wire 1 +" done_q $end
   $var wire 32 ," Wt [31:0] $end
   $var wire 32 -" Wt_from_block [31:0] $end
   $var wire 32 ." T1 [31:0] $end
   $var wire 32 /" T2 [31:0] $end
   $var wire 32 0" i [31:0] $end
  $upscope $end
 $upscope $end
$enddefinitions $end


#0
1#
0$
b00000000000000000000000000000000000000000000000000000000000000000000000000000000000000000000000000000000000000000000000000000000 %
b1111111111111111 )
0*
1+
0,
b00000000000000000000000000000000000000000000000000000000000000000000000000000000000000000000000000000000000000000000000000000000 -
b1111111111111111 1
02
03
04
15
06
b00000000000000000000000000000000000000000000000000000000000000000000000000000000000000000000000000000000000000000000000000000000 7
b1111111111111111 ;
0<
1=
0>
b00000000000000000000000000000000000000000000000000000000000000000000000000000000000000000000000000000000000000000000000000000000 ?
b1111111111111111 C
0D
0E
0F
0G
1H
0I
b00000000000000000000000000000000000000000000000000000000000000000000000000000000000000000000000000000000000000000000000000000000000000000000000000000000000000000000000000000000000000000000000000000000000000000000000000000000000000000000000000000000000000000000000000000000000000000000000000000000000000000000000000000000000000000000000000000000000000000000000000000000000000000000000000000000000000000000000000000000000000000000000000000000000000000000000000000000000000000000000000000000000000000000000000000000 J
b0000000000000000000000000000000000000000000000000000000000000000000000000000000000000000000000000000000000000000000000000000000000000000000000000000000000000000000000000000000000000000000000000000000000000000000000000000000000000000000000000000000000000000 Z
b0000000000000000000000000000000000000000000000000000000000000000000000000000000000000000000000000000000000000000000000000000000000000000000000000000000000000000000000000000000000000000000000000000000000000000000000000000000000000000000000000000000000000000 b
b000 j
b00000000000000000000000000000000000000000000000000000000000000000000000000000000000000000000000000000000000000000000000000000000000000000000000000000000000000000000000000000000000000000000000000000000000000000000000000000000000000000000000000000000000000000000000000000000000000000000000000000000000000000000000000000000000000000000000000000000000000000000000000000000000000000000000000000000000000000000000000000000000000000000000000000000000000000000000000000000000000000000000000000000000000000000000000000000 k
b00 {
b0000000000000000000000000000000000000000000000000000000000000000000000000000000000000000000000000000000000000000000000000000000000000000000000000000000000000000000000000000000000000000000000000000000000000000000000000000000000000000000000000000000000000000 |
0&!
0'!
b00000000000000000000000000000000000000000000000000000000000000000000000000000000000000000000000000000000000000000000000000000000000000000000000000000000000000000000000000000000000000000000000000000000000000000000000000000000000000000000000000000000000000000000000000000000000000000000000000000000000000000000000000000000000000000000000000000000000000000000000000000000000000000000000000000000000000000000000000000000000000000000000000000000000000000000000000000000000000000000000000000000000000000000000000000000 (!
b0000000000000000000000000000000000000000000000000000000000000000000000000000000000000000000000000000000000000000000000000000000000000000000000000000000000000000000000000000000000000000000000000000000000000000000000000000000000000000000000000000000000000000 8!
0@!
b00 A!
1B!
0C!
0D!
b00000000000000000000000000000000000000000000000000000000000000000000000000000000000000000000000000000000000000000000000000000000000000000000000000000000000000000000000000000000000000000000000000000000000000000000000000000000000000000000000000000000000000000000000000000000000000000000000000000000000000000000000000000000000000000000000000000000000000000000000000000000000000000000000000000000000000000000000000000000000000000000000000000000000000000000000000000000000000000000000000000000000000000000000000000000 E!
b0000000000000000000000000000000000000000000000000000000000000000000000000000000000000000000000000000000000000000000000000000000000000000000000000000000000000000000000000000000000000000000000000000000000000000000000000000000000000000000000000000000000000000 U!
1]!
0^!
b0000000000000000000000000000000000000000000000000000000000000000000000000000000000000000000000000000000000000000000000000000000000000000000000000000000000000000000000000000000000000000000000000000000000000000000000000000000000000000000000000000000000000000 _!
b00000000000000000000000000000000 g!
b00000000000000000000000000000000 h!
b00000000000000000000000000000000 i!
b00000000000000000000000000000000 j!
b00000000000000000000000000000000 k!
b00000000000000000000000000000000 l!
b00000000000000000000000000000000 m!
b00000000000000000000000000000000 n!
b00000000000000000000000000000000 o!
b00000000000000000000000000000000 p!
b00000000000000000000000000000000 q!
b00000000000000000000000000000000 r!
b00000000000000000000000000000000 s!
b00000000000000000000000000000000 t!
b00000000000000000000000000000000 u!
b00000000000000000000000000000000 v!
b00000000000000000000000000000000 w!
b00000000000000000000000000000000 x!
b00000000000000000000000000000000 y!
b00000000000000000000000000000000 z!
b00000000000000000000000000000000 {!
b00000000000000000000000000000000 |!
b00000000000000000000000000000000 }!
b00000000000000000000000000000000 ~!
b00000000000000000000000000000000 !"
b00000000000000000000000000000000 ""
b00000000000000000000000000000000 #"
b00000000000000000000000000000000 $"
b00000000000000000000000000000000 %"
b00000000000000000000000000000000 &"
b00000000000000000000000000000000 '"
b00000000000000000000000000000000 ("
b000000 )"
0*"
0+"
b00000000000000000000000000000000 ,"
b00000000000000000000000000000000 -"
b01000010100010100010111110011000 ."
b00000000000000000000000000000000 /"
b00000000000000000000000000010000 0"
b00000000000000000000000010000000 1"
b00000000000000000000000000010000 2"
b0110101000001001111001100110011110111011011001111010111010000101001111000110111011110011011100101010010101001111111101010011101001010001000011100101001001111111100110110000010101101000100011000001111110000011110110011010101101011011111000001100110100011001 3"
b10000000000000000000000000000000000000000000000000000000000000000000000000000000000000000000000000000000000000000000000000000000000000000000000000000000000000000000000000000000000000000000000000000000000000000000000000000000000000000000000000000000000000000000000000000000000000000000000000000000000000000000000000000000000000000000000000000000000000000000000000000000000000000000000000000000000000000000000000000000000000000000000000000000000000000000000000000000000000000000000000000000000000000000001000000000 ;"
#4000
0#
05
0B!
#8000
1#
15
1B!
#12000
0#
05
0B!
#16000
1#
15
1B!
#20000
0#
05
0B!
#24000
1#
15
1B!
#28000
0#
05
0B!
#32000
1#
15
1B!
#36000
0#
05
0B!
#40000
1#
15
1B!
#44000
0#
05
0B!
#48000
1#
15
1B!
#52000
0#
05
0B!
#56000
1#
1$
15
16
1B!
1C!
#60000
0#
05
0B!
#64000
1#
1*
15
1<
1B!
#68000
0#
05
0B!
#72000
1#
15
b01 {
1B!
#76000
0#
05
0B!
#80000
1#
15
b10 {
1B!
#84000
0#
05
0B!
#88000
1#
1,
15
1>
b11 {
1B!
#92000
0#
05
0B!
#96000
1#
0*
0+
0,
13
15
0<
0=
0>
1E
1G
b0110101000001001111001100110011110111011011001111010111010000101001111000110111011110011011100101010010101001111111101010011101001010001000011100101001001111111100110110000010101101000100011000001111110000011110110011010101101011011111000001100110100011001 Z
b001 j
b00 {
1'!
b0110101000001001111001100110011110111011011001111010111010000101001111000110111011110011011100101010010101001111111101010011101001010001000011100101001001111111100110110000010101101000100011000001111110000011110110011010101101011011111000001100110100011001 8!
1B!
1D!
b0110101000001001111001100110011110111011011001111010111010000101001111000110111011110011011100101010010101001111111101010011101001010001000011100101001001111111100110110000010101101000100011000001111110000011110110011010101101011011111000001100110100011001 U!
#100000
0#
05
0B!
#104000
1#
15
0G
0H
b0110101000001001111001100110011110111011011001111010111010000101001111000110111011110011011100101010010101001111111101010011101001010001000011100101001001111111100110110000010101101000100011000001111110000011110110011010101101011011111000001100110100011001 b
0'!
1B!
0D!
0]!
b0110101000001001111001100110011110111011011001111010111010000101001111000110111011110011011100101010010101001111111101010011101001010001000011100101001001111111100110110000010101101000100011000001111110000011110110011010101101011011111000001100110100011001 _!
b01101010000010011110011001100111 g!
b10111011011001111010111010000101 h!
b00111100011011101111001101110010 i!
b10100101010011111111010100111010 j!
b01010001000011100101001001111111 k!
b10011011000001010110100010001100 l!
b00011111100000111101100110101011 m!
b01011011111000001100110100011001 n!
b01101010000010011110011001100111 o!
b10111011011001111010111010000101 p!
b00111100011011101111001101110010 q!
b10100101010011111111010100111010 r!
b01010001000011100101001001111111 s!
b10011011000001010110100010001100 t!
b00011111100000111101100110101011 u!
b01011011111000001100110100011001 v!
1*"
b11110011011101111110110101101000 ."
b00001000100100001001101011100101 /"
#108000
0#
05
0B!
#112000
1#
15
b1111110000001000100010000100110101101010000010011110011001100111101110110110011110101110100001010011110001101110111100110111001010011000110001111110001010100010010100010000111001010010011111111001101100000101011010001000110000011111100000111101100110101011 b
1B!
b1111110000001000100010000100110101101010000010011110011001100111101110110110011110101110100001010011110001101110111100110111001010011000110001111110001010100010010100010000111001010010011111111001101100000101011010001000110000011111100000111101100110101011 _!
b11111100000010001000100001001101 g!
b01101010000010011110011001100111 h!
b10111011011001111010111010000101 i!
b00111100011011101111001101110010 j!
b10011000110001111110001010100010 k!
b01010001000011100101001001111111 l!
b10011011000001010110100010001100 m!
b00011111100000111101100110101011 n!
b000001 )"
b01100001100000101011111010100100 ."
b00011001010101101010001111101100 /"
b00000000000000000000000000001111 0"
#116000
0#
05
0B!
#120000
1#
15
b0111101011011001011000101001000011111100000010001000100001001101011010100000100111100110011001111011101101100111101011101000010110011101111100011011001000010110100110001100011111100010101000100101000100001110010100100111111110011011000001010110100010001100 b
1B!
b0111101011011001011000101001000011111100000010001000100001001101011010100000100111100110011001111011101101100111101011101000010110011101111100011011001000010110100110001100011111100010101000100101000100001110010100100111111110011011000001010110100010001100 _!
b01111010110110010110001010010000 g!
b11111100000010001000100001001101 h!
b01101010000010011110011001100111 i!
b10111011011001111010111010000101 j!
b10011101111100011011001000010110 k!
b10011000110001111110001010100010 l!
b01010001000011100101001001111111 m!
b10011011000001010110100010001100 n!
b000010 )"
b00001010000100111011101001110110 ."
b11101001110010011011000111001001 /"
#124000
0#
05
0B!
#128000
1#
15
b1111001111011101011011000011111101111010110110010110001010010000111111000000100010001000010011010110101000001001111001100110011111000101011110110110100011111011100111011111000110110010000101101001100011000111111000101010001001010001000011100101001001111111 b
1B!
b1111001111011101011011000011111101111010110110010110001010010000111111000000100010001000010011010110101000001001111001100110011111000101011110110110100011111011100111011111000110110010000101101001100011000111111000101010001001010001000011100101001001111111 _!
b11110011110111010110110000111111 g!
b01111010110110010110001010010000 h!
b11111100000010001000100001001101 i!
b01101010000010011110011001100111 j!
b11000101011110110110100011111011 k!
b10011101111100011011001000010110 l!
b10011000110001111110001010100010 m!
b01010001000011100101001001111111 n!
b000011 )"
b00100110100100110000111101100010 ."
b11100011100100011010001001001000 /"
#132000
0#
05
0B!
#136000
1#
15
b0000101000100100101100011010101011110011110111010110110000111111011110101101100101100010100100001111110000001000100010000100110110010000100111001111010111001001110001010111101101101000111110111001110111110001101100100001011010011000110001111110001010100010 b
1B!
b0000101000100100101100011010101011110011110111010110110000111111011110101101100101100010100100001111110000001000100010000100110110010000100111001111010111001001110001010111101101101000111110111001110111110001101100100001011010011000110001111110001010100010 _!
b00001010001001001011000110101010 g!
b11110011110111010110110000111111 h!
b01111010110110010110001010010000 i!
b11111100000010001000100001001101 j!
b10010000100111001111010111001001 k!
b11000101011110110110100011111011 l!
b10011101111100011011001000010110 m!
b10011000110001111110001010100010 n!
b000100 )"
b00110000101000101000110001011101 ."
b00010111111111010011011000100001 /"
#140000
0#
05
0B!
#144000
1#
15
b0100100010011111110000100111111000001010001001001011000110101010111100111101110101101100001111110111101011011001011000101001000000101100101010110001010010101010100100001001110011110101110010011100010101111011011010001111101110011101111100011011001000010110 b
1B!
b0100100010011111110000100111111000001010001001001011000110101010111100111101110101101100001111110111101011011001011000101001000000101100101010110001010010101010100100001001110011110101110010011100010101111011011010001111101110011101111100011011001000010110 _!
b01001000100111111100001001111110 g!
b00001010001001001011000110101010 h!
b11110011110111010110110000111111 i!
b01111010110110010110001010010000 j!
b00101100101010110001010010101010 k!
b10010000100111001111010111001001 l!
b11000101011110110110100011111011 m!
b10011101111100011011001000010110 n!
b000101 )"
b00100010001110001010110100000110 ."
b01001001011110100010110110000001 /"
#148000
0#
05
0B!
#152000
1#
15
b0110101110110010110110101000011101001000100111111100001001111110000010100010010010110001101010101111001111011101011011000011111110011101000100100000111110010110001011001010101100010100101010101001000010011100111101011100100111000101011110110110100011111011 b
1B!
b0110101110110010110110101000011101001000100111111100001001111110000010100010010010110001101010101111001111011101011011000011111110011101000100100000111110010110001011001010101100010100101010101001000010011100111101011100100111000101011110110110100011111011 _!
b01101011101100101101101010000111 g!
b01001000100111111100001001111110 h!
b00001010001001001011000110101010 i!
b11110011110111010110110000111111 j!
b10011101000100100000111110010110 k!
b00101100101010110001010010101010 l!
b10010000100111001111010111001001 m!
b11000101011110110110100011111011 n!
b000110 )"
b10000101111010100000000110011011 ."
b00010000011101001100100101000111 /"
#156000
0#
05
0B!
#160000
1#
15
b1001011001011110110010101110001001101011101100101101101010000111010010001001111111000010011111100000101000100100101100011010101001111001110001110110110111011010100111010001001000001111100101100010110010101011000101001010101010010000100111001111010111001001 b
1B!
b1001011001011110110010101110001001101011101100101101101010000111010010001001111111000010011111100000101000100100101100011010101001111001110001110110110111011010100111010001001000001111100101100010110010101011000101001010101010010000100111001111010111001001 _!
b10010110010111101100101011100010 g!
b01101011101100101101101010000111 h!
b01001000100111111100001001111110 i!
b00001010001001001011000110101010 j!
b01111001110001110110110111011010 k!
b10011101000100100000111110010110 l!
b00101100101010110001010010101010 m!
b10010000100111001111010111001001 n!
b000111 )"
b10001010000000100011101010110110 ."
b11010100010001110101010011111101 /"
#164000
0#
05
0B!
#168000
1#
15
b0101111001001001100011111011001110010110010111101100101011100010011010111011001011011010100001110100100010011111110000100111111010010100001001101110110001100000011110011100011101101101110110101001110100010010000011111001011000101100101010110001010010101010 b
1B!
b0101111001001001100011111011001110010110010111101100101011100010011010111011001011011010100001110100100010011111110000100111111010010100001001101110110001100000011110011100011101101101110110101001110100010010000011111001011000101100101010110001010010101010 _!
b01011110010010011000111110110011 g!
b10010110010111101100101011100010 h!
b01101011101100101101101010000111 i!
b01001000100111111100001001111110 j!
b10010100001001101110110001100000 k!
b01111001110001110110110111011010 l!
b10011101000100100000111110010110 m!
b00101100101010110001010010101010 n!
b001000 )"
b00111010111111010101111000111110 ."
b11101010100100010010011101111100 /"
#172000
0#
05
0B!
#176000
1#
15
b0010010110001110100001011011101001011110010010011000111110110011100101100101111011001010111000100110101110110010110110101000011110000011100111010010000010111100100101000010011011101100011000000111100111000111011011011101101010011101000100100000111110010110 b
1B!
b0010010110001110100001011011101001011110010010011000111110110011100101100101111011001010111000100110101110110010110110101000011110000011100111010010000010111100100101000010011011101100011000000111100111000111011011011101101010011101000100100000111110010110 _!
b00100101100011101000010110111010 g!
b01011110010010011000111110110011 h!
b10010110010111101100101011100010 i!
b01101011101100101101101010000111 j!
b10000011100111010010000010111100 k!
b10010100001001101110110001100000 l!
b01111001110001110110110111011010 m!
b10011101000100100000111110010110 n!
b001001 )"
b11010010111010100011000101100000 ."
b10110100111100101111010100111110 /"
#180000
0#
05
0B!
#184000
1#
15
b1000011111011101001001101001111000100101100011101000010110111010010111100100100110001111101100111001011001011110110010101110001000111110100111010000101111100111100000111001110100100000101111001001010000100110111011000110000001111001110001110110110111011010 b
1B!
b1000011111011101001001101001111000100101100011101000010110111010010111100100100110001111101100111001011001011110110010101110001000111110100111010000101111100111100000111001110100100000101111001001010000100110111011000110000001111001110001110110110111011010 _!
b10000111110111010010011010011110 g!
b00100101100011101000010110111010 h!
b01011110010010011000111110110011 i!
b10010110010111101100101011100010 j!
b00111110100111010000101111100111 k!
b10000011100111010010000010111100 l!
b10010100001001101110110001100000 m!
b01111001110001110110110111011010 n!
b001010 )"
b11001111010100010010110001001101 ."
b11101001011001101001010100001011 /"
#188000
0#
05
0B!
#192000
1#
15
b1011100010110111110000010101100010000111110111010010011010011110001001011000111010000101101110100101111001001001100011111011001101100101101011111111011100101111001111101001110100001011111001111000001110011101001000001011110010010100001001101110110001100000 b
1B!
b1011100010110111110000010101100010000111110111010010011010011110001001011000111010000101101110100101111001001001100011111011001101100101101011111111011100101111001111101001110100001011111001111000001110011101001000001011110010010100001001101110110001100000 _!
b10111000101101111100000101011000 g!
b10000111110111010010011010011110 h!
b00100101100011101000010110111010 i!
b01011110010010011000111110110011 j!
b01100101101011111111011100101111 k!
b00111110100111010000101111100111 l!
b10000011100111010010000010111100 m!
b10010100001001101110110001100000 n!
b001011 )"
b00011111010100100000101101101010 ."
b10100001100011001101110010100100 /"
#196000
0#
05
0B!
#200000
1#
15
b1100000011011110111010000000111010111000101101111100000101011000100001111101110100100110100111100010010110001110100001011011101001111101100110111001101100011101011001011010111111110111001011110011111010011101000010111110011110000011100111010010000010111100 b
1B!
b1100000011011110111010000000111010111000101101111100000101011000100001111101110100100110100111100010010110001110100001011011101001111101100110111001101100011101011001011010111111110111001011110011111010011101000010111110011110000011100111010010000010111100 _!
b11000000110111101110100000001110 g!
b10111000101101111100000101011000 h!
b10000111110111010010011010011110 i!
b00100101100011101000010110111010 j!
b01111101100110111001101100011101 k!
b01100101101011111111011100101111 l!
b00111110100111010000101111100111 m!
b10000011100111010010000010111100 n!
b001100 )"
b00111001011111110110010111000000 ."
b00001100110000010110100000010101 /"
#204000
0#
05
0B!
#208000
1#
15
b0100011001000000110011011101010111000000110111101110100000001110101110001011011111000001010110001000011111011101001001101001111001011111000011011110101101111010011111011001101110011011000111010110010110101111111101110010111100111110100111010000101111100111 b
1B!
b0100011001000000110011011101010111000000110111101110100000001110101110001011011111000001010110001000011111011101001001101001111001011111000011011110101101111010011111011001101110011011000111010110010110101111111101110010111100111110100111010000101111100111 _!
b01000110010000001100110111010101 g!
b11000000110111101110100000001110 h!
b10111000101101111100000101011000 i!
b10000111110111010010011010011110 j!
b01011111000011011110101101111010 k!
b01111101100110111001101100011101 l!
b01100101101011111111011100101111 m!
b00111110100111010000101111100111 n!
b001101 )"
b00111101111010011100100001000001 ."
b11111100111001000001110111000110 /"
#212000
0#
05
0B!
#216000
1#
15
b0011101011001101111001100000011101000110010000001100110111010101110000001101111011101000000011101011100010110111110000010101100011000101110001101110111011011111010111110000110111101011011110100111110110011011100110110001110101100101101011111111011100101111 b
1B!
b0011101011001101111001100000011101000110010000001100110111010101110000001101111011101000000011101011100010110111110000010101100011000101110001101110111011011111010111110000110111101011011110100111110110011011100110110001110101100101101011111111011100101111 _!
b00111010110011011110011000000111 g!
b01000110010000001100110111010101 h!
b11000000110111101110100000001110 i!
b10111000101101111100000101011000 j!
b11000101110001101110111011011111 k!
b01011111000011011110101101111010 l!
b01111101100110111001101100011101 m!
b01100101101011111111011100101111 n!
b001110 )"
b11000110010000101100010110110100 ."
b00001011110111111001111100001100 /"
#220000
0#
05
0B!
#224000
1#
15
b1101001000100010011001001100000000111010110011011110011000000111010001100100000011001101110101011100000011011110111010000000111001111110111110101000011100001100110001011100011011101110110111110101111100001101111010110111101001111101100110111001101100011101 b
1B!
b1101001000100010011001001100000000111010110011011110011000000111010001100100000011001101110101011100000011011110111010000000111001111110111110101000011100001100110001011100011011101110110111110101111100001101111010110111101001111101100110111001101100011101 _!
b11010010001000100110010011000000 g!
b00111010110011011110011000000111 h!
b01000110010000001100110111010101 i!
b11000000110111101110100000001110 j!
b01111110111110101000011100001100 k!
b11000101110001101110111011011111 l!
b01011111000011011110101101111010 m!
b01111101100110111001101100011101 n!
b001111 )"
b00110010001101110010111010000010 ."
b11101101010111011111000000110000 /"
#228000
0#
05
0B!
#232000
1#
15
b0001111110010101000111101011001011010010001000100110010011000000001110101100110111100110000001110100011001000000110011011101010111110011000101100001011010010000011111101111101010000111000011001100010111000110111011101101111101011111000011011110101101111010 b
1B!
b0001111110010101000111101011001011010010001000100110010011000000001110101100110111100110000001110100011001000000110011011101010111110011000101100001011010010000011111101111101010000111000011001100010111000110111011101101111101011111000011011110101101111010 _!
b00011111100101010001111010110010 g!
b11010010001000100110010011000000 h!
b00111010110011011110011000000111 i!
b01000110010000001100110111010101 j!
b11110011000101100001011010010000 k!
b01111110111110101000011100001100 l!
b11000101110001101110111011011111 m!
b01011111000011011110101101111010 n!
b010000 )"
b11010101010101011011011001101011 ."
b01000000100101001101100111111100 /"
#236000
0#
05
0B!
#240000
1#
15
b0001010111101010100100000110011100011111100101010001111010110010110100100010001001100100110000000011101011001101111001100000011100011011100101101000010001000000111100110001011000010110100100000111111011111010100001110000110011000101110001101110111011011111 b
1B!
b0001010111101010100100000110011100011111100101010001111010110010110100100010001001100100110000000011101011001101111001100000011100011011100101101000010001000000111100110001011000010110100100000111111011111010100001110000110011000101110001101110111011011111 _!
b00010101111010101001000001100111 g!
b00011111100101010001111010110010 h!
b11010010001000100110010011000000 i!
b00111010110011011110011000000111 j!
b00011011100101101000010001000000 k!
b11110011000101100001011010010000 l!
b01111110111110101000011100001100 m!
b11000101110001101110111011011111 n!
b010001 )"
b01110000001100100100011000111101 ."
b00000011101001011010101111111100 /"
#244000
0#
05
0B!
#248000
1#
15
b0111001111010111111100100011100100010101111010101001000001100111000111111001010100011110101100101101001000100010011001001100000010101011000000000010110001000100000110111001011010000100010000001111001100010110000101101001000001111110111110101000011100001100 b
1B!
b0111001111010111111100100011100100010101111010101001000001100111000111111001010100011110101100101101001000100010011001001100000010101011000000000010110001000100000110111001011010000100010000001111001100010110000101101001000001111110111110101000011100001100 _!
b01110011110101111111001000111001 g!
b00010101111010101001000001100111 h!
b00011111100101010001111010110010 i!
b11010010001000100110010011000000 j!
b10101011000000000010110001000100 k!
b00011011100101101000010001000000 l!
b11110011000101100001011010010000 m!
b01111110111110101000011100001100 n!
b010010 )"
b00000100000000010111111010000011 ."
b10101010110011100001101000110001 /"
#252000
0#
05
0B!
#256000
1#
15
b1010111011001111100110001011010001110011110101111111001000111001000101011110101010010000011001110001111110010101000111101011001011010110001000111110001101000011101010110000000000101100010001000001101110010110100001000100000011110011000101100001011010010000 b
1B!
b1010111011001111100110001011010001110011110101111111001000111001000101011110101010010000011001110001111110010101000111101011001011010110001000111110001101000011101010110000000000101100010001000001101110010110100001000100000011110011000101100001011010010000 _!
b10101110110011111001100010110100 g!
b01110011110101111111001000111001 h!
b00010101111010101001000001100111 i!
b00011111100101010001111010110010 j!
b11010110001000111110001101000011 k!
b10101011000000000010110001000100 l!
b00011011100101101000010001000000 m!
b11110011000101100001011010010000 n!
b010011 )"
b00011001100010101100011010110110 ."
b00001000010000111101001100011111 /"
#260000
0#
05
0B!
#264000
1#
15
b0010000111001110100110011101010110101110110011111001100010110100011100111101011111110010001110010001010111101010100100000110011100111001000111111110010101101000110101100010001111100011010000111010101100000000001011000100010000011011100101101000010001000000 b
1B!
b0010000111001110100110011101010110101110110011111001100010110100011100111101011111110010001110010001010111101010100100000110011100111001000111111110010101101000110101100010001111100011010000111010101100000000001011000100010000011011100101101000010001000000 _!
b00100001110011101001100111010101 g!
b10101110110011111001100010110100 h!
b01110011110101111111001000111001 i!
b00010101111010101001000001100111 j!
b00111001000111111110010101101000 k!
b11010110001000111110001101000011 l!
b10101011000000000010110001000100 m!
b00011011100101101000010001000000 n!
b010100 )"
b01011101100101011000001001101000 ."
b11100000100011011001010100111011 /"
#268000
0#
05
0B!
#272000
1#
15
b0011111000100011000101111010001100100001110011101001100111010101101011101100111110011000101101000111001111010111111100100011100101110011100000000001001011001111001110010001111111100101011010001101011000100011111000110100001110101011000000000010110001000100 b
1B!
b0011111000100011000101111010001100100001110011101001100111010101101011101100111110011000101101000111001111010111111100100011100101110011100000000001001011001111001110010001111111100101011010001101011000100011111000110100001110101011000000000010110001000100 _!
b00111110001000110001011110100011 g!
b00100001110011101001100111010101 h!
b10101110110011111001100010110100 i!
b01110011110101111111001000111001 j!
b01110011100000000001001011001111 k!
b00111001000111111110010101101000 l!
b11010110001000111110001101000011 m!
b10101011000000000010110001000100 n!
b010101 )"
b01001110110000011010101000100110 ."
b00101101100111110101000110111101 /"
#276000
0#
05
0B!
#280000
1#
15
b0111110001100000111110111110001100111110001000110001011110100011001000011100111010011001110101011010111011001111100110001011010011000010100110011001110001011111011100111000000000010010110011110011100100011111111001010110100011010110001000111110001101000011 b
1B!
b0111110001100000111110111110001100111110001000110001011110100011001000011100111010011001110101011010111011001111100110001011010011000010100110011001110001011111011100111000000000010010110011110011100100011111111001010110100011010110001000111110001101000011 _!
b01111100011000001111101111100011 g!
b00111110001000110001011110100011 h!
b00100001110011101001100111010101 i!
b10101110110011111001100010110100 j!
b11000010100110011001110001011111 k!
b01110011100000000001001011001111 l!
b00111001000111111110010101101000 m!
b11010110001000111110001101000011 n!
b010110 )"
b01100110100101110001100100110001 ."
b11000000010011101110101111110001 /"
#284000
0#
05
0B!
#288000
1#
15
b0010011011100110000001010010001001111100011000001111101111100011001111100010001100010111101000110010000111001110100110011101010100010101011001101011000111100101110000101001100110011100010111110111001110000000000100101100111100111001000111111110010101101000 b
1B!
b0010011011100110000001010010001001111100011000001111101111100011001111100010001100010111101000110010000111001110100110011101010100010101011001101011000111100101110000101001100110011100010111110111001110000000000100101100111100111001000111111110010101101000 _!
b00100110111001100000010100100010 g!
b01111100011000001111101111100011 h!
b00111110001000110001011110100011 i!
b00100001110011101001100111010101 j!
b00010101011001101011000111100101 k!
b11000010100110011001110001011111 l!
b01110011100000000001001011001111 m!
b00111001000111111110010101101000 n!
b010111 )"
b00101110010010011100010100101100 ."
b01110111000111100101011010000110 /"
#292000
0#
05
0B!
#296000
1#
15
b1010010101101000000110111011001000100110111001100000010100100010011111000110000011111011111000110011111000100011000101111010001101010000000110000101111100000001000101010110011010110001111001011100001010011001100111000101111101110011100000000001001011001111 b
1B!
b1010010101101000000110111011001000100110111001100000010100100010011111000110000011111011111000110011111000100011000101111010001101010000000110000101111100000001000101010110011010110001111001011100001010011001100111000101111101110011100000000001001011001111 _!
b10100101011010000001101110110010 g!
b00100110111001100000010100100010 h!
b01111100011000001111101111100011 i!
b00111110001000110001011110100011 j!
b01010000000110000101111100000001 k!
b00010101011001101011000111100101 l!
b11000010100110011001110001011111 m!
b01110011100000000001001011001111 n!
b011000 )"
b10000111100001011101100001011111 ."
b11111001000000100000001011011011 /"
#300000
0#
05
0B!
